<?xml version="1.0" encoding="iso-8859-1"?>
<!-- Generator: Adobe Illustrator 16.0.0, SVG Export Plug-In . SVG Version: 6.00 Build 0)  -->
<!DOCTYPE svg PUBLIC "-//W3C//DTD SVG 1.1//EN" "http://www.w3.org/Graphics/SVG/1.1/DTD/svg11.dtd">
<svg version="1.1" id="Layer_1" xmlns="http://www.w3.org/2000/svg" xmlns:xlink="http://www.w3.org/1999/xlink" viewBox="0 0 232.971 222.972" xml:space="preserve">
<g>
	<g>
		<path style="fill-rule:evenodd;clip-rule:evenodd;fill:none;" d="M0,9.999C0,6.666,0,3.333,0,0c77.657,0,155.314,0,232.971,0
			c0,74.324,0,148.647,0,222.972c-77.656,0-155.314,0-232.971,0C0,152.647,0,82.323,0,11.999c4.898,2.139,8.565,5.983,12.68,9.2
			c5.695,4.452,7.829,11.503,12.204,16.974c4.557,5.698,7.07,12.846,11.577,18.62c2.07,2.651,3.053,5.795,5.094,8.461
			c2.813,3.673,5.25,7.78,7.042,12.04c1.303,3.095,2.426,6.338,3.753,9.44c1.39,3.249,1.43,7.162,4.487,9.663
			c0.262,0.214,0.091,0.933,0.16,1.411c0.34,2.361,1.564,4.339,2.497,6.467c1.315,3.002,3.867,4.966,5.172,7.849
			c1.336,2.95,2.808,5.844,4.343,8.697c1.731,3.215,1.331,6.183-1.141,8.683c-1.17,1.184-2.036,2.57-2.667,3.929
			c-0.809,1.741-1.771,3.264-2.874,4.82c-1.974,2.785-4.022,5.662-5.224,8.812c-1.594,4.179-3.403,8.261-5.198,12.344
			c-0.348,0.791-0.648,2.235-1.319,2.373c-3.519,0.72-2.262,3.963-3.417,5.952c1.463-0.945,2.829-1.908,3.339-4.142
			c1.271,3.13-1.287,4.582-1.515,6.707c1.653,1.746,1.075,3.632,0.322,5.542c0.553,0.193,0.605,1.154,1.914,0.775
			c0.371-2.326,2.479-3.718,4.18-5.58c0.344,0.283,0.681,0.56,1.135,0.933c2.081-2.196,2.129-6.36,5.919-7
			c1.341,1.348-0.168,1.833-0.383,2.827c0.815,0,1.602,0,2.534,0c4.494-7.648,8.775-15.709,14.747-23.529
			c1.044,2.801,1.685,5.158,2.766,7.293c2.725,5.38,5.01,10.931,6.835,16.664c0.992,3.116,1.582,6.396,2.507,9.483
			c1.099,3.667,2.742,7.184,3.575,11.004c0.825,3.785,3.25,7.171,2.932,11.265c-0.065,0.836,0.814,0.988,1.003,1.589
			c1.018,3.246,2.546,6.449,2.86,9.766c0.325,3.442,2.002,6.269,2.829,9.484c0.319-2.509,0.137-4.99,0.372-7.431
			c0.216-2.247-1.551-4.392-0.135-6.725c0.29-0.477-1.641-1.346-0.648-2.413c1.498-1.611,1.125-3.826,0.573-5.141
			c-1.29-3.074-0.602-6.112-0.831-9.149c-0.516-6.851,0.538-13.701-0.828-20.615c-0.883-4.474-1.103-9.172-2.282-13.604
			c-0.903-3.392-0.286-7.425-3.591-10.026c-0.362-0.284-0.277-1.208-0.301-1.839c-0.164-4.291-1.569-8.278-2.89-12.3
			c-0.726-2.21-0.95-4.61-1.854-6.731c-1.191-2.798,1.257-4.408,1.924-6.501c0.777-2.441,1.061-5.423,3.319-7.336
			c2.884,4.53,3.394,9.806,6.097,14.224c1.255,2.05,1.967,4.593,2.316,7.001c0.59,4.061,2.38,7.71,3.524,11.569
			c0.737,2.484,1.556,5.128,2.741,7.326c1.294,2.401,1.208,5.152,2.74,7.404c0.564,0.829-0.293,2.329,1.128,4.276
			c-0.318-4.235,1.582-7.186,0.955-10.49c-0.057-0.299-0.029-0.688,0.119-0.939c1.438-2.431,2.23-5.178,2.738-7.837
			c0.564-2.953,2.223-5.453,2.677-8.451c0.309-2.046,1.143-4.156,1.827-6.194c1.039-3.094,2.623-5.95,3.837-8.921
			c1.198-2.93,1.437-6.255,3.28-8.971c2.463,2.059,2.183,5.28,3.694,7.6c1.222,1.875,0.9,3.562,0.276,5.449
			c-1.215,3.668-2.525,7.325-3.395,11.079c-0.632,2.736-1.967,5.536-1.853,8.144c0.139,3.183-2.534,5.184-2.304,8.185
			c0.041,0.531-1.126,1.097-0.919,2.08c0.484,2.311-0.897,4.397-0.91,6.582c-0.014,2.456-0.665,4.732-1.052,7.089
			c-0.28,1.71-1.257,3.163-1.139,5.085c0.154,2.508,0.814,5.204-0.843,7.611c-0.264,0.384-0.089,1.455,0.273,1.803
			c0.718,0.688,0.478,1.502,0.723,2.232c0.541,1.606-2.577,3.129-0.046,4.686c0,1.999,0.011,3.999-0.004,5.998
			c-0.008,0.985,0.297,2.206-0.163,2.914c-1.611,2.478-0.465,5.135-0.833,7.669c1.791,1.056-0.624,2.544,0.065,3.087
			c1.86,1.466,0.216,2.497-0.031,3.76c-0.545,2.78,0.518,5.333,1.625,7.941c-0.188-1.966,1.702-3.402,1.301-5.335
			c-0.462-2.222,0.402-4.432,1.25-5.977c1.054-1.925-0.013-4.268,1.777-5.799c1.26-1.078,0.987-2.632,1.016-4.07
			c0.017-0.818-0.23-1.855,0.172-2.408c1.061-1.458,1.072-3.229,1.781-4.781c0.637-1.393,0.515-3.292,1.434-4.36
			c1.309-1.521-0.44-3.803,1.609-4.874c-0.182-3.085,3.05-5.383,1.999-8.669c2.282-6.712,4.166-13.567,7.562-19.866
			c0.642-1.189,1.132-2.522,1.58-3.85c0.813-2.409,0.991-5.295,3.405-6.963c0.506,0.316,0.249,0.976,0.482,1.29
			c5.324,7.163,9.748,14.875,13.979,22.708c0.764,1.414,1.621,2.813,3.419,3.011c0.207-0.207,0.372-0.304,0.436-0.446
			c0.3-0.677,0.008-1.15-0.425-1.72c-2.623-3.446-2.681-3.652-3.209-7.675c1.83-0.618,3.025-0.158,3.796,1.766
			c1.862,4.651,5.614,8.011,8.492,11.967c1.572,2.162,4.464,2.778,5.886,4.941c1.465-0.747,1.286-2.144,2.184-2.887
			c1.738,2.061,2.742,4.787,4.64,5.647c1.208-0.512,2.12-0.898,3.76-1.593c-2.834-1.127-1.652-3.501-3.245-5.103
			c-1.403-1.411-3.071-3.016-3.908-4.805c-1.251-2.675-4.734-3.538-5.064-6.825c-0.052-0.514-0.962-0.894-1.34-1.431
			c-0.814-1.159-2.682-1.619-2.423-3.485c0.258-1.859-1.794-2.355-2.185-4.133c-0.716-3.249-2.003-6.615-3.928-9.304
			c-3.756-5.245-6.349-11.186-10.451-16.241c-2.304-2.839-3.813-6.303-0.656-10.247c2.071-2.587,3.006-6.048,4.899-8.96
			c1.307-2.011,2.76-4.112,3.723-6.416c0.713-1.704,1.128-3.502,2.039-5.162c0.802-1.459,1.662-3.321,1.411-4.825
			c-0.404-2.423,3.025-2.869,2.139-5.193c1.508-3.877,3.323-7.629,4.395-11.691c0.231-0.878,0.932-1.933,1.579-2.853
			c2.329-3.307,4.348-6.835,6.437-10.307c2.259-3.753,3.91-7.895,7.082-11.058c0.694-0.692,1.144-1.773,1.281-2.446
			c0.661-3.221,2.955-5.467,4.364-8.216c2.285-4.454,6.138-7.86,8.024-12.675c0.797-2.033,2.543-4.011,4.303-5.739
			c3.704-3.64,8.049-6.464,11.941-9.851c2.579-0.215,1.411-1.796,1.349-2.664c-4.205,0.103-6.485,3.125-8.745,5.821
			c-1.475-0.88-0.266-1.145-0.216-1.583c0.087-0.756-1.172-1.071-0.639-2.314c3.364-3.352,6.767-7.163,11.925-8.965
			c-3.002-1.001-5.233,0.232-7.737,1.483c-1.883,0.94-2.777,2.575-4.355,3.558c0.397,0.488,0.67,0.824,0.682,0.839
			c-0.769,1.018-1.441,1.91-2.306,3.054c-0.689-1.794-2.083-2.217-3.338-2.847c1.016-1.015,2.037-1.892,2.878-2.919
			c0.786-0.961,2.946-0.394,2.685-2.463c-3.298,0.272-5.89,2.657-9.168,3.084c-0.504,0.065-1.459,0.817-1.424,1.829
			c0,0.333,0,0.667,0,1c-1.276,0.05-2.403-0.038-3.634,0.968c-1.606,1.313-3.132,2.915-4.883,3.843
			c-1.981,1.05-3.158,2.561-4.522,4.124c-1.318,1.509-2.939,2.762-4.481,4.064c-0.897,0.757-1.34,1.711-1.785,2.766
			c-1.567,3.714-4.568,6.671-5.691,10.634c-1.881,1.072-1.743,3.288-2.748,4.86c-1.679,2.628-3.42,5.228-4.926,7.955
			c-2.177,3.941-4.858,7.565-6.893,11.618c-0.873,1.738-1.917,3.558-3.014,5.264c-3.362,5.229-6.808,10.41-9.433,16.076
			c-0.521,1.122-1.231,2.16-1.886,3.216c-1.718,2.77-3.18,5.608-4.271,8.736c-0.538,1.543-0.082,4.016-2.453,4.76
			c-1.288-2.294-2.489-4.65-3.916-6.859c-0.522-0.81-0.665-1.667-0.407-2.3c1.737-4.276,3.351-8.64,5.549-12.678
			c1.328-2.44,2.458-5.009,4.063-7.345c1.641-2.391,2.686-5.195,3.956-7.834c1.203-2.498,2.441-4.984,3.515-7.538
			c1.141-2.712,3.779-4.672,3.907-7.875c3.825-4.438,5.194-10.577,10.31-14.193c-2.044-2.158-1.152-4.537-1.364-6.741
			c1.175-1.102,2.075-2.548,3.811-2.796c0.637-1.329-0.282-2.834,1.006-4.173c1.242-1.292,2.786-1.407,4.38-1.934
			c-0.511-1.21,0.247-2.418-0.533-3.465c-1.396-0.634-2.365,0.466-3.535,0.808c-1.464,0.428-2.473-0.411-3.116-1.707
			c-0.345-1.149,1.821-1.655,0.765-2.987c-0.461-0.582-1.81,0.159-1.758-1.338c0.075-0.952,1.462-1.639,0.832-2.927
			c1.639,0,3.136,0.139,4.584-0.068c0.584-0.083,1.059-0.926,1.597-1.438c-0.674-0.641-1.142-1.086-1.801-1.714
			c-1.348,0.977-3.179,1.162-4.38,3.22c-1.391-0.912-3.047-1.769-4.728-0.551c-1.481,1.074-3.467,2.226-3.925,3.739
			c-0.543,1.794-1.554,2.938-2.816,3.75c-2.976,1.916-5.699,4.081-8.335,6.435c-1.86,1.661-3.008,3.793-4.493,5.684
			c-2.396,3.05-5.429,5.834-5.562,10.174c-0.023,0.771-0.721,1.4-1.078,2.027c-0.996,1.752-2.413,3.173-2.985,5.286
			c-0.555,2.044-1.848,3.884-2.784,5.829c-2.187,4.537-4.353,9.083-6.558,13.69c-0.626-0.625-1.346-1.017-1.527-1.581
			c-1.276-3.965-3.454-7.505-4.296-11.768c-0.717-3.628-2.507-7.265-3.627-10.92c-1.193-3.892-1.635-8.054-2.009-12.134
			c-0.116-1.261-1.353-1.789-1.135-3.077c0.777-4.591-1.017-9.015-1.006-13.569c0.002-0.608,0.573-1.597-1.324-2.027
			c1.495,4.977-1.234,9.41-0.646,14.157c0.283,2.284-0.201,4.473-1.02,6.571c-0.646,1.653-0.728,3.391-1.092,5.065
			c-0.657,3.023-0.417,6.342-2.271,9.013c-0.541,0.779-0.432,1.502-0.644,2.25c-0.884,3.122-1.877,6.212-2.833,9.313
			c-0.91,2.954-2.741,5.494-3.667,8.487c-0.43,1.389-0.737,3.338-2.972,4.563c-2.692-6.733-6.501-12.68-10.22-18.683
			c-1.13-1.825-1.44-4.472-2.967-5.66c-2.154-1.675-2.49-4.134-3.603-6.125c-1.71-3.059-3.699-6.008-4.911-9.441
			c-1.104-3.128-3.497-5.8-5.352-8.721c-1.309,0.671-2.344,1.202-3.349,1.717c0.464,1.538,2.948,1.19,2.784,2.32
			c-0.395,2.722,2.286,2.679,3.065,3.709c0.196,1.495-1.8,1.983-0.842,2.996c1.94,2.051-0.304,1.88-1.028,2.506
			c-2.764-0.763-2.623-3.454-3.811-5.22c-2.378-3.536-5.282-6.766-7.287-10.49c-2.038-3.787-5.847-5.401-8.602-8.253
			c-0.306-0.317-1.594-0.397-2.208,0.346c-0.642,0.764,0.511,2.035-1.577,2.918c-0.377-3.994-3.799-5.65-5.936-8.2
			c-1.001,0.875-1.873,1.635-2.697,2.355c0.206,0.908,0.009,1.644,0.432,2.481c2.356,4.666,5.22,9.013,8.901,12.661
			c1.804,1.787,2.148,4.385,3.865,5.896c3.769,3.318,4.91,7.93,6.895,12.173c1.644,3.516,2.168,7.426,4.021,10.822
			c1.122,2.056,2.683,3.871,3.825,5.917c1.879,3.369,3.328,7.072,5.448,10.196c5.611,8.269,9.363,17.461,14.076,26.166
			c0.731,1.351,0.954,2.949,0.422,3.664c-1.739,2.339-1.923,5.6-4.515,7.61c-0.547-2.469-1.693-4.56-2.608-6.613
			c-2.699-6.058-6.128-11.796-9.379-17.6c-2.896-5.169-6.334-10.01-9.444-15.053c-1.56-2.528-2.518-5.482-4.418-7.634
			c-2.161-2.449-3.109-5.468-4.901-7.993C48.042,39.8,44.61,32.835,41.041,25.944c-1.12-2.162-2.913-3.704-4.244-5.645
			c-2.858,0.302-3.155-2.62-4.808-3.847c-3.711-2.755-7.329-5.637-11.009-8.433c-0.211-0.161-0.65-0.021-0.983-0.021
			C12.547,4.164,9.163,2.984,5.135,4.635C8.501,6.4,9.562,7.626,8.765,8.717C8.065,9.3,7.75,7.321,6.98,8.575
			c-0.12,2.769,3.417,2.071,4.063,4.319c-0.478,0.955-1.009,2.015-1.551,3.099C7.8,14.299,6.165,12.664,4.48,10.979
			C2.927,11.091,1.333,11.118,0,9.999z M49.174,172.479c-4.002,2.453-5.229,6.845-8.449,9.99c1.786,0.842,3.109,0.729,3.815-0.594
			C46.186,178.797,47.642,175.617,49.174,172.479z"/>
		<path style="fill-rule:evenodd;clip-rule:evenodd;" d="M0,9.999c1.333,1.119,2.927,1.092,4.48,0.981
			c1.685,1.685,3.32,3.32,5.013,5.013c0.542-1.083,1.073-2.144,1.551-3.099c-0.647-2.248-4.184-1.55-4.063-4.319
			C7.75,7.321,8.065,9.3,8.765,8.717c0.797-1.09-0.264-2.317-3.63-4.082c4.028-1.651,7.412-0.472,15.645,4.831
			c1.117,1.133,1.452,0.799,1.786,0.464c-0.951-0.712-1.903-1.423-2.896-2.167c-1.184,1.695-1.105,1.808,1.11,1.703
			c-0.449-1.467-0.01-1.606,0.201-1.446c3.681,2.796,7.298,5.678,11.009,8.433c1.652,1.227,1.95,4.148,4.808,3.847
			c1.331,1.94,3.124,3.482,4.244,5.645c3.569,6.891,7.001,13.856,11.524,20.229c1.792,2.525,2.74,5.544,4.901,7.993
			c1.9,2.152,2.858,5.105,4.418,7.634c3.11,5.042,6.548,9.883,9.444,15.053c3.25,5.804,6.68,11.542,9.379,17.6
			c0.915,2.053,2.062,4.144,2.608,6.613c2.592-2.01,2.776-5.271,4.515-7.61c0.531-0.714,0.309-2.313-0.422-3.664
			c-4.712-8.705-8.464-17.897-14.076-26.166c-2.12-3.125-3.568-6.828-5.448-10.196c-1.142-2.047-2.703-3.862-3.825-5.917
			c-1.853-3.396-2.377-7.307-4.021-10.822c-1.984-4.244-3.125-8.855-6.895-12.173c-1.717-1.511-2.061-4.109-3.865-5.896
			c-3.682-3.648-6.545-7.995-8.901-12.661c-0.423-0.837-0.226-1.573-0.432-2.481c0.824-0.72,1.696-1.481,2.697-2.355
			c2.137,2.55,5.559,4.207,5.936,8.2c2.088-0.883,0.936-2.154,1.577-2.918c0.613-0.743,1.901-0.663,2.208-0.346
			c2.755,2.853,6.564,4.467,8.602,8.253c2.005,3.724,4.909,6.955,7.287,10.49c1.188,1.766,1.047,4.457,3.811,5.22
			c0.724-0.626,2.968-0.455,1.028-2.506c-0.958-1.013,1.038-1.501,0.842-2.996c-0.779-1.03-3.459-0.987-3.065-3.709
			c0.164-1.13-2.32-0.782-2.784-2.32c1.004-0.515,2.04-1.046,3.349-1.717c1.854,2.92,4.248,5.593,5.352,8.721
			c1.211,3.433,3.201,6.382,4.911,9.441c1.113,1.991,1.449,4.449,3.603,6.125c1.527,1.188,1.837,3.835,2.967,5.66
			c3.719,6.003,7.528,11.95,10.22,18.683c2.234-1.225,2.542-3.174,2.972-4.563c0.926-2.994,2.757-5.534,3.667-8.487
			c0.955-3.102,1.949-6.192,2.833-9.313c0.212-0.748,0.103-1.471,0.644-2.25c1.854-2.671,1.614-5.99,2.271-9.013
			c0.364-1.675,0.446-3.412,1.092-5.065c0.819-2.098,1.303-4.287,1.02-6.571c-0.588-4.747,2.141-9.18,0.646-14.157
			c1.897,0.43,1.326,1.418,1.324,2.027c-0.011,4.554,1.783,8.979,1.006,13.569c-0.218,1.289,1.019,1.816,1.135,3.077
			c0.374,4.081,0.815,8.242,2.009,12.134c1.12,3.655,2.91,7.292,3.627,10.92c0.842,4.262,3.02,7.803,4.296,11.768
			c0.182,0.564,0.901,0.955,1.527,1.581c2.205-4.607,4.371-9.153,6.558-13.69c0.937-1.945,2.229-3.785,2.784-5.829
			c0.572-2.112,1.989-3.534,2.985-5.286c0.357-0.627,1.055-1.256,1.078-2.027c0.133-4.34,3.166-7.124,5.562-10.174
			c1.485-1.891,2.633-4.023,4.493-5.684c2.636-2.354,5.359-4.52,8.335-6.435c1.263-0.813,2.273-1.956,2.816-3.75
			c0.458-1.513,2.443-2.665,3.925-3.739c1.681-1.217,3.337-0.36,4.889,0.551c0.469,1.288-0.918,1.975-0.993,2.927
			c-0.052,1.497,1.297,0.756,1.758,1.338c1.057,1.332-1.109,1.838-0.765,2.987c0.644,1.296,1.652,2.135,3.116,1.707
			c1.17-0.342,2.139-1.441,3.535-0.808c0.78,1.046,0.022,2.254,0.533,3.465c-1.594,0.527-3.138,0.643-4.38,1.934
			c-1.288,1.339-0.369,2.844-1.006,4.173c-1.735,0.248-2.636,1.694-3.811,2.796c0.212,2.204-0.68,4.583,1.364,6.741
			c-5.115,3.617-6.484,9.756-10.31,14.193c-0.128,3.203-2.767,5.163-3.907,7.875c-1.073,2.554-2.312,5.04-3.515,7.538
			c-1.271,2.64-2.315,5.443-3.956,7.834c-1.604,2.336-2.734,4.905-4.063,7.345c-2.198,4.038-3.812,8.402-5.549,12.678
			c-0.258,0.633-0.115,1.49,0.407,2.3c1.427,2.209,2.628,4.565,3.916,6.859c2.371-0.744,1.915-3.217,2.453-4.76
			c1.091-3.128,2.553-5.967,4.271-8.736c0.654-1.057,1.365-2.094,1.886-3.216c2.625-5.666,6.07-10.847,9.433-16.076
			c1.097-1.706,2.141-3.526,3.014-5.264c2.034-4.053,4.716-7.677,6.893-11.618c1.506-2.727,3.247-5.326,4.926-7.955
			c1.005-1.572,0.867-3.788,2.748-4.86c1.123-3.962,4.124-6.919,5.691-10.634c0.445-1.055,0.888-2.009,1.785-2.766
			c1.542-1.302,3.163-2.555,4.481-4.064c1.364-1.563,2.541-3.073,4.522-4.124c1.751-0.928,3.276-2.53,4.883-3.843
			c1.23-1.006,2.357-0.918,3.634-0.968c0.327,0,0.661,0.042,0.979-0.012c0.292-0.051,0.773-0.159,0.811-0.323
			c0.138-0.615-0.323-0.688-0.809-0.667c-0.326,0.014-0.653,0.002-0.98,0.002c-0.035-1.011,0.92-1.763,1.424-1.829
			c3.278-0.428,5.87-2.813,9.168-3.084c0.262,2.069-1.898,1.502-2.685,2.463c-0.841,1.027-1.862,1.904-2.878,2.919
			c1.255,0.63,2.648,1.052,3.338,2.847c0.864-1.145,1.537-2.036,2.306-3.054c-0.012-0.015-0.284-0.351-0.682-0.839
			c1.578-0.983,2.473-2.618,4.355-3.558c2.504-1.251,4.735-2.484,7.737-1.483c-5.158,1.802-8.561,5.614-11.925,8.965
			c-0.533,1.243,0.726,1.558,0.639,2.314c-0.05,0.439-1.259,0.703,0.216,1.583c2.26-2.695,4.54-5.718,8.745-5.821
			c0.063,0.868,1.23,2.448-1.349,2.664c-3.893,3.387-8.237,6.211-11.941,9.851c-1.76,1.728-3.506,3.706-4.303,5.739
			c-1.887,4.814-5.739,8.221-8.024,12.675c-1.409,2.749-3.703,4.995-4.364,8.216c-0.138,0.672-0.587,1.753-1.281,2.446
			c-3.172,3.163-4.823,7.305-7.082,11.058c-2.089,3.472-4.107,7-6.437,10.307c-0.647,0.92-1.348,1.975-1.579,2.853
			c-1.071,4.062-2.887,7.814-4.395,11.691c0.887,2.324-2.543,2.77-2.139,5.193c0.251,1.503-0.609,3.365-1.411,4.825
			c-0.911,1.659-1.326,3.458-2.039,5.162c-0.963,2.303-2.416,4.405-3.723,6.416c-1.894,2.912-2.828,6.373-4.899,8.96
			c-3.157,3.944-1.647,7.407,0.656,10.247c4.103,5.055,6.695,10.997,10.451,16.241c1.925,2.689,3.212,6.055,3.928,9.304
			c0.391,1.777,2.442,2.273,2.185,4.133c-0.259,1.866,1.608,2.326,2.423,3.485c0.378,0.537,1.288,0.917,1.34,1.431
			c0.33,3.287,3.813,4.15,5.064,6.825c0.837,1.789,2.505,3.394,3.908,4.805c1.593,1.602,0.411,3.976,3.245,5.103
			c-1.64,0.694-2.552,1.081-3.76,1.593c-1.897-0.86-2.901-3.587-4.64-5.647c-0.897,0.743-0.719,2.14-2.184,2.887
			c-1.422-2.163-4.313-2.779-5.886-4.941c-2.878-3.956-6.63-7.315-8.492-11.967c-0.771-1.924-1.966-2.384-3.796-1.766
			c0.528,4.022,0.586,4.229,3.209,7.675c0.433,0.569,0.725,1.043,0.425,1.72c-0.063,0.143-0.229,0.239-0.436,0.446
			c-1.798-0.197-2.655-1.597-3.419-3.011c-4.23-7.834-8.654-15.546-13.979-22.708c-0.233-0.314,0.023-0.974-0.482-1.29
			c-2.414,1.668-2.592,4.554-3.405,6.963c-0.448,1.327-0.938,2.66-1.58,3.85c-3.396,6.299-5.279,13.154-7.562,19.866
			c1.051,3.286-2.181,5.584-1.999,8.669c-2.05,1.071-0.301,3.353-1.609,4.874c-0.919,1.068-0.797,2.968-1.434,4.36
			c-0.709,1.552-0.721,3.323-1.781,4.781c-0.402,0.553-0.155,1.59-0.172,2.408c-0.028,1.438,0.244,2.992-1.016,4.07
			c-1.79,1.531-0.724,3.874-1.777,5.799c-0.848,1.545-1.712,3.755-1.25,5.977c0.401,1.933-1.489,3.369-1.301,5.335
			c-1.107-2.608-2.17-5.161-1.625-7.941c0.247-1.263,1.892-2.294,0.031-3.76c-0.689-0.543,1.726-2.031-0.065-3.087
			c0.368-2.534-0.778-5.191,0.833-7.669c0.46-0.708,0.155-1.929,0.163-2.914c0.015-1.999,0.004-3.999,0.004-5.998
			c-2.531-1.557,0.587-3.079,0.046-4.686c-0.245-0.73-0.005-1.544-0.723-2.232c-0.362-0.348-0.537-1.419-0.273-1.803
			c1.657-2.407,0.997-5.104,0.843-7.611c-0.118-1.922,0.858-3.375,1.139-5.085c0.387-2.356,1.038-4.633,1.052-7.089
			c0.013-2.185,1.395-4.271,0.91-6.582c-0.207-0.983,0.96-1.549,0.919-2.08c-0.23-3.001,2.442-5.002,2.304-8.185
			c-0.114-2.607,1.221-5.407,1.853-8.144c0.869-3.754,2.18-7.411,3.395-11.079c0.624-1.888,0.945-3.574-0.276-5.449
			c-1.512-2.32-1.231-5.541-3.694-7.6c-1.844,2.715-2.082,6.041-3.28,8.971c-1.214,2.972-2.798,5.828-3.837,8.921
			c-0.685,2.038-1.519,4.147-1.827,6.194c-0.454,2.999-2.112,5.498-2.677,8.451c-0.508,2.66-1.3,5.407-2.738,7.837
			c-0.148,0.252-0.176,0.641-0.119,0.939c0.627,3.305-1.273,6.255-0.955,10.49c-1.421-1.947-0.563-3.447-1.128-4.276
			c-1.532-2.252-1.445-5.003-2.74-7.404c-1.185-2.198-2.004-4.842-2.741-7.326c-1.144-3.859-2.934-7.508-3.524-11.569
			c-0.35-2.408-1.062-4.951-2.316-7.001c-2.703-4.418-3.212-9.693-6.097-14.224c-2.259,1.913-2.542,4.895-3.319,7.336
			c-0.667,2.093-3.115,3.703-1.924,6.501c0.903,2.121,1.127,4.521,1.854,6.731c1.321,4.022,2.726,8.009,2.89,12.3
			c0.024,0.631-0.061,1.555,0.301,1.839c3.305,2.602,2.688,6.635,3.591,10.026c1.179,4.433,1.399,9.131,2.282,13.604
			c1.365,6.914,0.312,13.765,0.828,20.615c0.229,3.037-0.459,6.075,0.831,9.149c0.551,1.314,0.925,3.529-0.573,5.141
			c-0.992,1.067,0.938,1.937,0.648,2.413c-1.416,2.333,0.352,4.478,0.135,6.725c-0.235,2.44-0.053,4.922-0.372,7.431
			c-0.827-3.216-2.504-6.042-2.829-9.484c-0.313-3.316-1.842-6.52-2.86-9.766c-0.188-0.601-1.068-0.753-1.003-1.589
			c0.318-4.094-2.107-7.479-2.932-11.265c-0.833-3.82-2.476-7.337-3.575-11.004c-0.925-3.088-1.516-6.367-2.507-9.483
			c-1.825-5.733-4.11-11.284-6.835-16.664c-1.082-2.135-1.722-4.492-2.766-7.293c-5.972,7.82-10.253,15.881-14.747,23.529
			c-0.933,0-1.719,0-2.534,0c0.214-0.994,1.724-1.479,0.383-2.827c-3.79,0.64-3.838,4.804-5.919,7
			c-0.454-0.373-0.792-0.649-1.135-0.933c-1.701,1.862-3.809,3.254-4.18,5.58c-1.309,0.379-1.361-0.582-1.914-0.775
			c0.753-1.91,1.331-3.796-0.322-5.542c0.228-2.125,2.786-3.577,1.515-6.707c-0.511,2.233-1.876,3.196-3.339,4.142
			c1.155-1.989-0.102-5.232,3.417-5.952c0.671-0.138,0.972-1.582,1.319-2.373c1.795-4.083,3.604-8.165,5.198-12.344
			c1.202-3.15,3.25-6.027,5.224-8.812c1.103-1.556,2.065-3.079,2.874-4.82c0.631-1.359,1.497-2.746,2.667-3.929
			c2.472-2.5,2.872-5.467,1.141-8.683c-1.535-2.853-3.007-5.747-4.343-8.697c-1.305-2.883-3.857-4.846-5.172-7.849
			c-0.933-2.128-2.156-4.106-2.497-6.467c-0.069-0.479,0.102-1.197-0.16-1.411c-3.057-2.5-3.098-6.414-4.487-9.663
			c-1.327-3.102-2.45-6.345-3.753-9.44c-1.792-4.26-4.229-8.367-7.042-12.04c-2.042-2.666-3.024-5.81-5.094-8.461
			c-4.507-5.774-7.02-12.922-11.577-18.62c-4.375-5.471-6.509-12.522-12.204-16.974c-4.115-3.217-7.781-7.061-12.68-9.2
			C0,11.332,0,10.665,0,9.999z M120.117,129.756c1.081-1.857,1.081-1.857,0.324-5.729c-1.615,1.873-1.346,3.891-1.054,7.883
			c0.208-0.185,0.592-0.474,0.568-0.513c-0.271-0.44,0.602-1.535-0.419-1.328C118.73,130.234,118.766,131.218,120.117,129.756z
			 M114.457,53.805c-0.955,2.126-1.747,3.812-1.5,5.84c0.332,2.737-1.492,5.218-1.116,7.992c-2.23,2.321-1.668,5.603-2.851,8.285
			c-1.945,4.409-1.129,8.559,0.892,12.756c0.425,0.882,0.901,1.959,1.238,2.979c1.549,4.698,2.887,9.47,4.508,14.203
			c0.159-1.658,1.97-2.739,1.357-4.524c1.889-1.883,0.29-4.636,1.773-6.763c0.931-1.333,1.764-3.07,1.226-4.948
			c2.039-1.184,0.368-3.602,1.862-5.273c1.065-1.191-0.602-3.271-0.786-4.952c-0.362-3.307-1.272-6.39-2.555-9.427
			c-0.656-1.554-1.297-3.203-1.461-4.856c-0.3-3.023-1.685-5.914-1.076-9.049C116.161,55.07,115.053,54.805,114.457,53.805z
			 M195.957,26.515c1.489-1.49,2.46-2.489,3.464-3.454c0.703-0.677,0.804-1.332-0.012-2.146
			C198.462,22.639,195.947,23.261,195.957,26.515z M128.643,167.932c-2.556,1.685-1.498,3.916-1.178,6.015
			C127.32,171.879,129.8,170.286,128.643,167.932z M79.231,64.956c-1.146-0.939-0.629-2.481-2.555-2.656
			C77.517,63.255,75.987,65.11,79.231,64.956z M173.141,85.364c-1.149-0.506-1.775-0.479-2.14,0.139
			c-0.248,0.422-1.272,0.497-0.739,1.315C171.772,87.47,172.159,86.072,173.141,85.364z M209.442,13.04
			c0.553-0.569,1.045-1.075,2.03-2.089c-1.302,0.131-1.84,0.028-2.146,0.249C208.71,11.643,208.829,12.267,209.442,13.04z
			 M204.68,15.464c2.662,1.136,2.353-0.057,2.129-1.33C206.07,14.595,205.455,14.98,204.68,15.464z M71.491,50.003
			c0.726-0.676,0.726-1.343,0-2.02C70.765,48.66,70.765,49.327,71.491,50.003z M74.491,51.983c-0.726,0.676-0.726,1.343,0,2.02
			C75.217,53.327,75.217,52.66,74.491,51.983z M52.493,83.999c0.726-0.676,0.726-1.343,0-2.019
			C51.768,82.656,51.768,83.323,52.493,83.999z M161.97,93.488c0.677,0.726,1.343,0.726,2.02,0
			C163.313,92.762,162.646,92.762,161.97,93.488z"/>
		<path style="fill-rule:evenodd;clip-rule:evenodd;" d="M49.174,172.479c-1.532,3.138-2.989,6.317-4.634,9.396
			c-0.707,1.323-2.029,1.436-3.815,0.594C43.945,179.324,45.172,174.933,49.174,172.479z"/>
		<path style="fill-rule:evenodd;clip-rule:evenodd;" d="M171.657,4.999c1.361-2.059,3.192-2.244,4.54-3.22
			c0.659,0.628,1.127,1.073,1.801,1.714c-0.538,0.512-1.013,1.355-1.597,1.438C174.953,5.138,173.456,4.999,171.657,4.999z"/>
		<path style="fill-rule:evenodd;clip-rule:evenodd;fill:none;" d="M204.975,8.999c0.327,0,0.654,0.011,0.98-0.002
			c0.485-0.021,0.946,0.053,0.809,0.667c-0.037,0.164-0.519,0.272-0.811,0.323c-0.317,0.055-0.651,0.012-0.979,0.012
			C204.975,9.665,204.975,9.332,204.975,8.999z"/>
		<path style="fill-rule:evenodd;clip-rule:evenodd;fill:none;" d="M114.457,53.805c0.596,1,1.704,1.266,1.512,2.262
			c-0.608,3.136,0.776,6.026,1.076,9.049c0.164,1.654,0.805,3.303,1.461,4.856c1.282,3.037,2.192,6.12,2.555,9.427
			c0.185,1.681,1.852,3.76,0.786,4.952c-1.494,1.671,0.177,4.089-1.862,5.273c0.538,1.878-0.295,3.615-1.226,4.948
			c-1.483,2.127,0.115,4.879-1.773,6.763c0.612,1.786-1.198,2.866-1.357,4.524c-1.621-4.733-2.959-9.504-4.508-14.203
			c-0.336-1.02-0.813-2.097-1.238-2.979c-2.021-4.197-2.837-8.348-0.892-12.756c1.183-2.683,0.621-5.964,2.851-8.285
			c-0.376-2.773,1.447-5.255,1.116-7.992C112.71,57.616,113.502,55.931,114.457,53.805z"/>
		<path style="fill-rule:evenodd;clip-rule:evenodd;fill:none;" d="M195.957,26.515c-0.01-3.254,2.505-3.876,3.452-5.6
			c0.815,0.814,0.715,1.469,0.012,2.146C198.417,24.026,197.446,25.025,195.957,26.515z"/>
		<path style="fill-rule:evenodd;clip-rule:evenodd;fill:none;" d="M120.117,129.756c-1.021-1.837-1.291-3.855,0.324-5.729
			C121.198,127.898,121.198,127.898,120.117,129.756z"/>
		<path style="fill-rule:evenodd;clip-rule:evenodd;fill:none;" d="M128.643,167.932c1.157,2.354-1.322,3.947-1.178,6.015
			C127.145,171.848,126.087,169.616,128.643,167.932z"/>
		<path style="fill-rule:evenodd;clip-rule:evenodd;fill:none;" d="M21.563,10.933c-2.998-1.362-3.077-1.475-1.893-3.17
			c0.993,0.744,1.945,1.455,2.896,2.167C22.231,10.265,21.897,10.599,21.563,10.933z"/>
		<path style="fill-rule:evenodd;clip-rule:evenodd;fill:none;" d="M79.231,64.956c-3.244,0.154-1.714-1.7-2.555-2.656
			C78.602,62.475,78.085,64.016,79.231,64.956z"/>
		<path style="fill-rule:evenodd;clip-rule:evenodd;fill:none;" d="M173.141,85.364c-0.981,0.708-1.368,2.106-2.879,1.455
			c-0.533-0.818,0.491-0.894,0.739-1.315C171.365,84.885,171.991,84.857,173.141,85.364z"/>
		<path style="fill-rule:evenodd;clip-rule:evenodd;fill:none;" d="M209.442,13.04c-0.613-0.773-0.732-1.396-0.116-1.84
			c0.307-0.221,0.845-0.118,2.146-0.249C210.487,11.965,209.995,12.471,209.442,13.04z"/>
		<path style="fill-rule:evenodd;clip-rule:evenodd;fill:none;" d="M204.68,15.464c0.775-0.484,1.391-0.869,2.129-1.33
			C207.032,15.408,207.342,16.601,204.68,15.464z"/>
		<path style="fill-rule:evenodd;clip-rule:evenodd;fill:none;" d="M71.491,50.003c-0.726-0.676-0.726-1.343,0-2.02
			C72.217,48.66,72.217,49.327,71.491,50.003z"/>
		<path style="fill-rule:evenodd;clip-rule:evenodd;fill:none;" d="M74.491,51.983c0.726,0.676,0.726,1.343,0,2.02
			C73.765,53.327,73.765,52.66,74.491,51.983z"/>
		<path style="fill-rule:evenodd;clip-rule:evenodd;fill:none;" d="M52.493,83.999c-0.726-0.676-0.726-1.343,0-2.019
			C53.219,82.656,53.219,83.323,52.493,83.999z"/>
		<path style="fill-rule:evenodd;clip-rule:evenodd;fill:none;" d="M161.97,93.488c0.677-0.726,1.343-0.726,2.02,0
			C163.313,94.214,162.646,94.214,161.97,93.488z"/>
		<path style="fill-rule:evenodd;clip-rule:evenodd;fill:none;" d="M119.388,131.911c-0.622-0.693-0.657-1.677,0.149-1.84
			c1.021-0.207,0.148,0.888,0.419,1.328C119.979,131.437,119.596,131.726,119.388,131.911z"/>
	</g>
</g>
</svg>
