<?xml version="1.0" standalone="no"?>
<!DOCTYPE svg PUBLIC "-//W3C//DTD SVG 20010904//EN"
 "http://www.w3.org/TR/2001/REC-SVG-20010904/DTD/svg10.dtd">
<svg version="1.0" xmlns="http://www.w3.org/2000/svg"
 width="260.000000pt" height="260.000000pt" viewBox="0 0 260.000000 260.000000"
 preserveAspectRatio="xMidYMid meet">
<metadata>
Created by potrace 1.11, written by Peter Selinger 2001-2013
</metadata>
<g transform="translate(0.000000,260.000000) scale(0.100000,-0.100000)"
fill="#000000" stroke="none">
<path d="M378 2571 c-5 -47 11 -183 32 -257 42 -155 134 -308 253 -421 91 -86
145 -124 245 -170 42 -20 79 -38 82 -40 2 -2 -76 -84 -174 -182 -141 -141
-178 -184 -178 -205 -1 -21 36 -63 176 -203 97 -97 176 -180 176 -184 0 -5 -5
-9 -11 -9 -20 0 -154 -72 -214 -115 -136 -97 -266 -264 -324 -416 -43 -111
-59 -194 -64 -322 l-2 -47 930 2 930 3 -1 61 c-6 287 -168 575 -414 737 -72
47 -170 97 -190 97 -6 0 -10 3 -10 8 0 4 79 86 175 182 149 149 175 179 175
205 0 26 -26 56 -175 205 -96 96 -175 178 -175 182 0 5 5 8 11 8 6 0 43 16 82
36 255 128 435 353 498 624 19 79 30 198 21 231 -3 15 -82 17 -927 17 l-924 0
-3 -27z m1778 -80 c3 -116 -65 -302 -161 -436 l-42 -60 -643 0 -642 0 -35 40
c-65 75 -137 225 -163 338 -14 63 -22 135 -17 144 3 5 387 8 854 8 l848 0 1
-34z m-946 -858 c2 -2 -64 -72 -147 -156 -110 -110 -152 -160 -155 -179 -3
-24 18 -49 152 -183 85 -85 152 -156 150 -158 -3 -2 -33 -8 -68 -13 l-63 -10
-162 162 c-89 89 -170 171 -180 182 -18 19 -14 24 162 199 l181 180 62 -10
c35 -6 65 -12 68 -14z m501 -153 c163 -162 180 -182 168 -197 -8 -10 -88 -92
-179 -184 l-166 -166 -64 10 c-36 6 -67 12 -70 14 -2 2 67 75 153 161 125 125
157 162 154 180 -2 14 -68 88 -157 177 -85 85 -152 156 -150 158 3 2 32 8 65
14 33 6 61 11 63 12 1 0 84 -80 183 -179z m-245 -25 c85 -86 154 -158 154
-161 0 -3 -70 -76 -155 -161 l-156 -156 -26 24 c-62 58 -293 293 -291 295 12
15 313 314 316 314 2 0 73 -70 158 -155z m485 -864 c13 -2 109 -150 133 -205
36 -81 64 -180 72 -253 l6 -63 -857 0 -857 0 7 53 c17 136 66 270 138 379 70
104 -15 93 713 92 351 -1 642 -2 645 -3z"/>
</g>
</svg>
