<?xml version="1.0" encoding="iso-8859-1"?>
<svg version="1.1" id="Layer_1" xmlns="http://www.w3.org/2000/svg" xmlns:xlink="http://www.w3.org/1999/xlink" x="0px" y="0px"
	 viewBox="0 0 512 512" xml:space="preserve">
<g>
	<path d="M228.853,308.984c-0.553-2.78-1.383-5.168-1.442-7.575c-0.19-7.726-0.191-15.461-0.048-23.188
		c0.038-2.081,1.161-4.143,1.19-6.223c0.019-1.388-0.661-3.134-1.631-4.134c-10.597-10.912-23.037-19.363-36.292-26.677
		c-3.156-1.741-6.393-3.335-9.577-5.027c-0.672-0.357-1.748-0.766-1.833-1.283c-0.695-4.202-3.867-3.305-6.558-3.307
		c-24.608-0.017-49.219-0.21-73.823,0.109c-7.546,0.098-14.761-0.909-21.356-4.159c-6.559-3.232-13.469-3.028-20.306-3.689
		c-13.316-1.287-26.664-2.243-39.994-3.398c-2.83-0.245-5.501-0.548-6.377-4.278c-0.958-4.076-1.906-8.88,1.596-11.047
		c3.608-2.233,6.852-5.515,12.375-5.226c14.262,0.746,28.589,0.25,42.89,0.249c1.031,0,2.171,0.261,3.064-0.093
		c1.144-0.453,2.09-1.407,3.122-2.145c-0.885-0.897-1.758-1.807-2.66-2.687c-0.726-0.71-1.829-1.273-2.102-2.116
		c-0.159-0.491,0.909-1.483,1.559-2.112c1.154-1.117,2.41-2.129,3.623-3.185c-1.665-0.871-3.321-2.477-4.997-2.498
		c-15.329-0.196-30.663-0.224-45.993-0.052c-4.559,0.051-7.7-2.649-10.736-5.06c-3.397-2.698-3.369-10.852-0.5-14.246
		c0.695-0.822,2.2-1.245,3.371-1.333c10.904-0.813,21.815-1.553,32.728-2.232c9.76-0.607,19.528-1.095,29.289-1.684
		c0.85-0.051,2.321-0.31,2.418-0.727c1.025-4.374,4.478-3.08,7.175-3.083c55.658-0.049,111.317-0.032,166.975-0.044
		c4.909-0.001,9.595-0.952,14.447-1.989c10.892-2.328,22.149-3.093,33.297-4.019c6.42-0.534,12.919-0.055,19.379-0.193
		c5.446-0.116,10.752-0.921,15.74-3.434c1.259-0.634,3.188-0.699,4.508-0.211c1.077,0.399,1.582,2.148,2.572,3.043
		c0.763,0.689,1.909,0.936,2.843,1.457c2.707,1.509,5.382,3.076,8.091,4.583c1.703,0.948,3.437,1.843,5.17,2.736
		c7.45,3.841,15.668,3.512,23.664,4.113c3.205,0.241,4.467,1.277,4.114,4.375c-0.044,0.381-0.005,0.772-0.002,1.159
		c0.032,5.353,4.603,7.808,9.509,5.34c1.421-0.715,3.29-0.587,4.963-0.734c0.72-0.063,1.492,0.329,2.196,0.221
		c3.214-0.49,6.4-1.181,9.62-1.617c4.694-0.636,9.396-1.307,14.118-1.61c5.232-0.335,10.582-0.948,15.717-0.243
		c11.212,1.54,22.286,4.072,33.486,5.724c5.284,0.779,10.75,0.23,16.096,0.706c5.758,0.512,6.331,1.385,7.172,7.092
		c2.515,17.079,0.961,34.164,0.201,51.253c-0.446,10.029-0.713,20.066-1.105,30.098c-0.176,4.499-0.403,8.998-0.721,13.489
		c-0.235,3.325-2.005,5.177-5.484,5.172c-11.338-0.017-22.681,0.195-34.011-0.105c-6.702-0.178-11.606-3.851-14.712-9.774
		c-0.893-1.704-1.806-3.497-2.182-5.356c-2.55-12.59-12.651-19.188-21.214-27.013c-0.281-0.257-0.619-0.475-0.966-0.63
		c-8.578-3.841-22.425,1.165-26.082,9.793c-0.831,1.961-0.675,4.968,0.232,6.94c8.499,18.48,16.973,36.981,26.042,55.184
		c6.351,12.748,3.886,25.138-7.901,34.697c-9.919,8.043-21.618,12.132-33.893,14.066c-12.929,2.037-26.032,3.552-39.101,3.961
		c-15.914,0.499-31.904,0.143-47.802-0.827c-18.344-1.119-36.255-4.754-52.798-13.364c-1.483-0.772-2.95-1.592-4.353-2.501
		c-13.369-8.656-16.93-19.85-11.011-34.605C224.859,311.273,225.871,308.659,228.853,308.984z M273.439,308.841
		c1.663,0.154,2.401,0.281,3.138,0.281c29.481,0.01,58.963-0.049,88.443,0.079c3.716,0.016,4.072-1.91,3.723-4.589
		c-0.194-1.492-0.764-2.974-1.379-4.365c-3.802-8.591-7.707-17.137-11.495-25.734c-2.975-6.75-3.005-6.809-9.96-4.326
		c-11.661,4.163-21.219,0.223-26.496-10.927c-0.908-1.918-1.797-3.845-3.013-6.449C301.936,271.676,287.957,289.908,273.439,308.841
		z M331.323,346.729c-3.868,0-6.641-0.045-9.411,0.014c-2.148,0.046-3.616-0.642-3.35-3.056c0.385-3.503-1.525-3.961-4.43-3.943
		c-15.331,0.093-30.664,0.037-45.996,0.056c-1.088,0.001-2.176,0.182-3.263,0.28c-0.123,0.303-0.246,0.606-0.369,0.909
		c2.184,1.647,4.24,3.505,6.571,4.908c15.463,9.307,32.508,11.704,50.172,11.191c0.943-0.027,2.17-0.427,2.748-1.098
		C326.308,353.305,328.418,350.445,331.323,346.729z M124.768,217.03c1.331,0.154,2.3,0.353,3.27,0.364
		c23.517,0.271,47.034,0.613,70.552,0.752c22.274,0.132,44.55,0.049,66.825,0.056c1.158,0,2.396,0.213,3.451-0.127
		c0.907-0.292,1.605-1.233,2.395-1.887c-0.829-0.619-1.619-1.712-2.493-1.783c-7.4-0.605-14.81-1.283-22.227-1.441
		c-12.327-0.262-24.663-0.072-36.993-0.221c-14.277-0.172-28.551-0.496-42.827-0.77c-11.444-0.22-22.89-0.385-34.329-0.744
		C128.272,211.099,126.565,213.621,124.768,217.03z M392.764,341.337c-8.425,0-16.492-0.028-24.559,0.008
		c-7.167,0.032-14.986,5.889-17.397,12.955C359.667,356.416,386.041,348.439,392.764,341.337z M336.582,265.872
		c4.744-0.012,7.618-3.324,7.508-8.652c-0.07-3.38-7.194-9.312-11.169-9.3c-3.669,0.011-7.833,4.063-7.859,7.648
		C325.025,260.523,331.021,265.886,336.582,265.872z M281.845,157.011c17.68-0.387,35.361-0.773,53.041-1.16
		c-0.011-0.373-0.021-0.746-0.032-1.119C317.111,153.185,299.397,152.599,281.845,157.011z M374.168,184.614
		c0.059-0.323,0.119-0.646,0.178-0.969c-5.04-3.302-9.986-6.762-15.15-9.859c-4.384-2.63-8.9-6.534-13.569-6.86
		c-7.784-0.543-15.754,1.198-23.601,2.298c-1.278,0.179-2.326,2.005-3.48,3.069c0.261,0.289,0.521,0.577,0.782,0.866
		c1.626-0.885,3.156-2.203,4.893-2.587c12.319-2.719,24.472-4.051,35.153,5.069c2.632,2.247,5.525,4.225,8.466,6.058
		C369.796,182.917,372.049,183.659,374.168,184.614z M482.919,178.871c-11.699-2.01-23.173-3.981-35.158-6.04
		C451.783,177.12,478.977,181.659,482.919,178.871z M420.314,177.145c5.955-1.298,10.892-2.375,16.214-3.535
		C433.224,170.756,424.152,172.6,420.314,177.145z"/>
</g>
</svg>
